graph LR

A(pytest) == 1 ==> B{in_setup_org}
B -- 2 --> C[move_to_setup_org]
C -- 3 --> D((SETUP TEST<br>RESOURCES))
D -- 4 --> E[move_to_test_org]
E -- 5 --> F(test_answer)
F -. 6 .-> E
E -. 7 .-> H[move_to_setup_org]
H -. 8 .-> I((TEAR DOWN<br>RESOURCES))
I -. 9 .-> B
B -. 10 .-> J[move_to_test_org]
J == 11 ==> Z(Exit)

style D fill:white
style F stroke-width:4px
style I fill:white
